Código operacional e motivação
…
Remoção de Outlier

df_menor_out <- df_menor[-which(m3$residuals %in% outliers),]
df_menor_out

## # A tibble: 164 x 11
##    Presidente ideologia data    dia mes       PWR     ACH     AFF    I1    P1
##    <fct>      <fct>     <chr> <dbl> <fct>   <dbl>   <dbl>   <dbl> <dbl> <dbl>
##  1 LopezObra~ esquerda  07/f~     7 2     0.00992 0.00437 0.00655 0.512 0.510
##  2 LopezObra~ esquerda  11/f~    11 2     0.0113  0.00962 0.00887 0.727 0.363
##  3 LopezObra~ esquerda  14/f~    14 2     0.0177  0.00662 0.00686 0.319 0.366
##  4 LopezObra~ esquerda  18/f~    18 2     0.0192  0.00898 0.00674 0.682 0.218
##  5 LopezObra~ esquerda  20/f~    20 2     0.0159  0.00828 0.00863 0.6   0.454
##  6 LopezObra~ esquerda  24/f~    24 2     0.0190  0.00673 0.00721 0.852 0.316
##  7 LopezObra~ esquerda  27/f~    27 2     0       0.00592 0       0.28  0.412
##  8 LopezObra~ esquerda  04/m~     4 3     0.0138  0.00651 0.00814 0.238 0.389
##  9 LopezObra~ esquerda  10/m~    10 3     0.0134  0.00603 0.00737 0.4   0.38 
## 10 LopezObra~ esquerda  12/m~    12 3     0.00271 0.00812 0.00542 0.895 0.548
## # ... with 154 more rows, and 1 more variable: alinhamento <fct>
…
